module gitlab.com/Elevarup/ele_fun/reverse_proxy

go 1.21

require (
	github.com/go-sql-driver/mysql v1.7.1
	github.com/gorilla/mux v1.8.1
	github.com/ilyakaznacheev/cleanenv v1.5.0
	github.com/redis/go-redis/v9 v9.3.0
)

require (
	github.com/BurntSushi/toml v1.2.1 // indirect
	github.com/cespare/xxhash/v2 v2.2.0 // indirect
	github.com/dgryski/go-rendezvous v0.0.0-20200823014737-9f7001d12a5f // indirect
	github.com/joho/godotenv v1.5.1 // indirect
	gopkg.in/yaml.v3 v3.0.1 // indirect
	olympos.io/encoding/edn v0.0.0-20201019073823-d3554ca0b0a3 // indirect
)
